{
 "content": null, 
 "creation": "2017-04-21 23:25:27.235527", 
 "docstatus": 0, 
 "doctype": "Page", 
 "idx": 0, 
 "modified": "2017-04-21 23:25:27.235527", 
 "modified_by": "Administrator", 
 "module": "Movements", 
 "name": "vip-suite-booking", 
 "owner": "Administrator", 
 "page_name": "VIP Suite Booking", 
 "roles": [
  {
   "role": "Administrator"
  }, 
  {
   "role": "System Manager"
  }
 ], 
 "script": null, 
 "standard": "Yes", 
 "style": null, 
 "title": "VIP Suite Booking"
}